test_run_dir/Exercise_2/counter_3.vcd
$date
2021-03-24T07:50+0000
$end
$version
0.2
$end
$comment

$end
$timescale 1ns  $end
$scope module counter_3 $end
 $var wire 5 ! count $end
 $var wire 8 " _T $end
 $var wire 1 # _GEN_2 $end
 $var wire 6 $ _count_T $end
 $var wire 5 % _count_T_1 $end
 $var wire 8 & max $end
 $var wire 5 ' _GEN_1 $end
 $var wire 9 ( _max_T_1 $end
 $var wire 1 ) clock $end
 $var wire 1 * io_result $end
 $var wire 5 + _GEN_0 $end
 $var wire 5 , _count_T_2 $end
 $var wire 1 - reset $end
 $var wire 1 . _GEN_3 $end
$upscope $end
$enddefinitions $end
$dumpvars
0-
b00000 %
0.
b000011111 (
b00000000 "
b00000 ,
b00000 '
b000000 $
0)
0#
b00000 !
0*
b00000000 &
b00000 +
$end
#0
1-
b00001 %
b00011111 "
b00011111 &
b00001 '
b000001 $
b00001 +
b00001 ,
#1
1)
#6
0-
0)
#11
b00001 !
b00010 %
b00010 '
b000010 $
b00010 +
b00010 ,
1)
#16
0)
#21
b00010 !
b00011 %
b00011 '
b000011 $
b00011 +
b00011 ,
1)
#26
0)
#31
b00011 !
b00100 %
b00100 '
b000100 $
b00100 +
b00100 ,
1)
#36
0)
#41
b00100 !
b00101 %
b00101 '
b000101 $
b00101 +
b00101 ,
1)
#46
0)
#51
b00101 !
b00110 %
b00110 '
b000110 $
b00110 +
b00110 ,
1)
#56
0)
#61
b00110 !
b00111 %
b00111 '
b000111 $
b00111 +
b00111 ,
1)
#66
0)
#71
b00111 !
b01000 %
b01000 '
b001000 $
b01000 +
b01000 ,
1)
#76
0)
#81
b01000 !
b01001 %
b01001 '
b001001 $
b01001 +
b01001 ,
1)
#86
0)
#91
b01001 !
b01010 %
b01010 '
b001010 $
b01010 +
b01010 ,
1)
#96
0)
#101
b01010 !
b01011 %
b01011 '
b001011 $
b01011 +
b01011 ,
1)
#106
0)
#111
b01011 !
b01100 %
b01100 '
b001100 $
b01100 +
b01100 ,
1)
#116
0)
#121
b01100 !
b01101 %
b01101 '
b001101 $
b01101 +
b01101 ,
1)
#126
0)
#131
b01101 !
b01110 %
b01110 '
b001110 $
b01110 +
b01110 ,
1)
#136
0)
#141
b01110 !
b01111 %
b01111 '
b001111 $
b01111 +
b01111 ,
1)
#146
0)
#151
b01111 !
b10000 %
b10000 '
b010000 $
b10000 +
b10000 ,
1)
#156
0)
#161
b10000 !
b10001 %
1.
1#
1*
b00000 '
b110001 $
b00000 +
b10001 ,
1)
#166
0)
#171
b00000 !
b00001 %
0.
0#
0*
b00001 '
b000001 $
b00001 +
b00001 ,
1)
#176
0)
#181
b00001 !
b00010 %
b00010 '
b000010 $
b00010 +
b00010 ,
1)
#186
0)
#191
b00010 !
b00011 %
b00011 '
b000011 $
b00011 +
b00011 ,
1)
#196
0)
#201
b00011 !
b00100 %
b00100 '
b000100 $
b00100 +
b00100 ,
1)
#206
0)
#211
b00100 !
b00101 %
b00101 '
b000101 $
b00101 +
b00101 ,
1)
#216
0)
#221
b00101 !
b00110 %
b00110 '
b000110 $
b00110 +
b00110 ,
1)
#226
0)
#231
b00110 !
b00111 %
b00111 '
b000111 $
b00111 +
b00111 ,
1)
#236
0)
#241
b00111 !
b01000 %
b01000 '
b001000 $
b01000 +
b01000 ,
1)
#246
0)
#251
b01000 !
b01001 %
b01001 '
b001001 $
b01001 +
b01001 ,
1)
#256
0)
#261
b01001 !
b01010 %
b01010 '
b001010 $
b01010 +
b01010 ,
1)
#266
0)
#271
b01010 !
b01011 %
b01011 '
b001011 $
b01011 +
b01011 ,
1)
#276
0)
#281
b01011 !
b01100 %
b01100 '
b001100 $
b01100 +
b01100 ,
1)
#286
0)
#291
b01100 !
b01101 %
b01101 '
b001101 $
b01101 +
b01101 ,
1)
#296
0)
#301
b01101 !
b01110 %
b01110 '
b001110 $
b01110 +
b01110 ,
1)
#306
0)
#311
b01110 !
b01111 %
b01111 '
b001111 $
b01111 +
b01111 ,
1)
#316
0)
#321
b01111 !
b10000 %
b10000 '
b010000 $
b10000 +
b10000 ,
1)
#326
0)
#331
b10000 !
b10001 %
1.
1#
1*
b00000 '
b110001 $
b00000 +
b10001 ,
1)
#336
0)
#341
b00000 !
b00001 %
0.
0#
0*
b00001 '
b000001 $
b00001 +
b00001 ,
1)
#346
0)
#351
b00001 !
b00010 %
b00010 '
b000010 $
b00010 +
b00010 ,
1)
#356
0)
#361
b00010 !
b00011 %
b00011 '
b000011 $
b00011 +
b00011 ,
1)
#366
0)
#371
b00011 !
b00100 %
b00100 '
b000100 $
b00100 +
b00100 ,
1)
#376
0)
#381
b00100 !
b00101 %
b00101 '
b000101 $
b00101 +
b00101 ,
1)
#386
0)
#391
b00101 !
b00110 %
b00110 '
b000110 $
b00110 +
b00110 ,
1)
#396
0)
#401
b00110 !
b00111 %
b00111 '
b000111 $
b00111 +
b00111 ,
1)
#406
0)
#411
b00111 !
b01000 %
b01000 '
b001000 $
b01000 +
b01000 ,
1)
#416
0)
#421
b01000 !
b01001 %
b01001 '
b001001 $
b01001 +
b01001 ,
1)
#426
0)
#431
b01001 !
b01010 %
b01010 '
b001010 $
b01010 +
b01010 ,
1)
#436
0)
#441
b01010 !
b01011 %
b01011 '
b001011 $
b01011 +
b01011 ,
1)
#446
0)
#451
b01011 !
b01100 %
b01100 '
b001100 $
b01100 +
b01100 ,
1)
#456
0)
#461
b01100 !
b01101 %
b01101 '
b001101 $
b01101 +
b01101 ,
1)
#466
0)
#471
b01101 !
b01110 %
b01110 '
b001110 $
b01110 +
b01110 ,
1)
#476
0)
#481
b01110 !
b01111 %
b01111 '
b001111 $
b01111 +
b01111 ,
1)
#486
0)
#491
b01111 !
b10000 %
b10000 '
b010000 $
b10000 +
b10000 ,
1)
#496
0)
#501
b10000 !
b10001 %
1.
1#
1*
b00000 '
b110001 $
b00000 +
b10001 ,
1)
#506
0)
#511
b00000 !
b00001 %
0.
0#
0*
b00001 '
b000001 $
b00001 +
b00001 ,
1)
#516
0)
#521
b00001 !
b00010 %
b00010 '
b000010 $
b00010 +
b00010 ,
1)
#526
0)
#531
b00010 !
b00011 %
b00011 '
b000011 $
b00011 +
b00011 ,
1)
#536
0)
#541
b00011 !
b00100 %
b00100 '
b000100 $
b00100 +
b00100 ,
1)
#546
0)
#551
b00100 !
b00101 %
b00101 '
b000101 $
b00101 +
b00101 ,
1)
#556
0)
#561
b00101 !
b00110 %
b00110 '
b000110 $
b00110 +
b00110 ,
1)
#566
0)
#571
b00110 !
b00111 %
b00111 '
b000111 $
b00111 +
b00111 ,
1)
#576
0)
#581
b00111 !
b01000 %
b01000 '
b001000 $
b01000 +
b01000 ,
1)
#586
0)
#591
b01000 !
b01001 %
b01001 '
b001001 $
b01001 +
b01001 ,
1)
#596
0)
#601
b01001 !
b01010 %
b01010 '
b001010 $
b01010 +
b01010 ,
1)
#606
0)
#611
b01010 !
b01011 %
b01011 '
b001011 $
b01011 +
b01011 ,
1)
#616
0)
#621
b01011 !
b01100 %
b01100 '
b001100 $
b01100 +
b01100 ,
1)
#626
0)
#631
b01100 !
b01101 %
b01101 '
b001101 $
b01101 +
b01101 ,
1)
#636
0)
#641
b01101 !
b01110 %
b01110 '
b001110 $
b01110 +
b01110 ,
1)
#646
0)
#651
b01110 !
b01111 %
b01111 '
b001111 $
b01111 +
b01111 ,
1)
#656
0)
#661
b01111 !
b10000 %
b10000 '
b010000 $
b10000 +
b10000 ,
1)
#666
0)
#671
b10000 !
b10001 %
1.
1#
1*
b00000 '
b110001 $
b00000 +
b10001 ,
1)
#676
0)
#681
b00000 !
b00001 %
0.
0#
0*
b00001 '
b000001 $
b00001 +
b00001 ,
1)
#686
0)
#691
b00001 !
b00010 %
b00010 '
b000010 $
b00010 +
b00010 ,
1)
#696
0)
#701
b00010 !
b00011 %
b00011 '
b000011 $
b00011 +
b00011 ,
1)
#706
0)
#711
b00011 !
b00100 %
b00100 '
b000100 $
b00100 +
b00100 ,
1)
#716
0)
#721
b00100 !
b00101 %
b00101 '
b000101 $
b00101 +
b00101 ,
1)
#726
0)
#731
b00101 !
b00110 %
b00110 '
b000110 $
b00110 +
b00110 ,
1)
#736
0)
#741
b00110 !
b00111 %
b00111 '
b000111 $
b00111 +
b00111 ,
1)
#746
0)
#751
b00111 !
b01000 %
b01000 '
b001000 $
b01000 +
b01000 ,
1)
#756
0)
#761
b01000 !
b01001 %
b01001 '
b001001 $
b01001 +
b01001 ,
1)
#766
0)
#771
b01001 !
b01010 %
b01010 '
b001010 $
b01010 +
b01010 ,
1)
#776
0)
#781
b01010 !
b01011 %
b01011 '
b001011 $
b01011 +
b01011 ,
1)
#786
0)
#791
b01011 !
b01100 %
b01100 '
b001100 $
b01100 +
b01100 ,
1)
#796
0)
#801
b01100 !
b01101 %
b01101 '
b001101 $
b01101 +
b01101 ,
1)
#806
0)
#811
b01101 !
b01110 %
b01110 '
b001110 $
b01110 +
b01110 ,
1)
#816
0)
#821
b01110 !
b01111 %
b01111 '
b001111 $
b01111 +
b01111 ,
1)
#826
0)
#831
b01111 !
b10000 %
b10000 '
b010000 $
b10000 +
b10000 ,
1)
#836
0)
#841
b10000 !
b10001 %
1.
1#
1*
b00000 '
b110001 $
b00000 +
b10001 ,
1)
#846
0)
#851
b00000 !
b00001 %
0.
0#
0*
b00001 '
b000001 $
b00001 +
b00001 ,
1)
#856
0)
#861
b00001 !
b00010 %
b00010 '
b000010 $
b00010 +
b00010 ,
1)
#866
0)
#871
b00010 !
b00011 %
b00011 '
b000011 $
b00011 +
b00011 ,
1)
#876
0)
#881
b00011 !
b00100 %
b00100 '
b000100 $
b00100 +
b00100 ,
1)
#886
0)
#891
b00100 !
b00101 %
b00101 '
b000101 $
b00101 +
b00101 ,
1)
#896
0)
#901
b00101 !
b00110 %
b00110 '
b000110 $
b00110 +
b00110 ,
1)
#906
0)
#911
b00110 !
b00111 %
b00111 '
b000111 $
b00111 +
b00111 ,
1)
#916
0)
#921
b00111 !
b01000 %
b01000 '
b001000 $
b01000 +
b01000 ,
1)
#926
0)
#931
b01000 !
b01001 %
b01001 '
b001001 $
b01001 +
b01001 ,
1)
#936
0)
#941
b01001 !
b01010 %
b01010 '
b001010 $
b01010 +
b01010 ,
1)
#946
0)
#951
b01010 !
b01011 %
b01011 '
b001011 $
b01011 +
b01011 ,
1)
#956
0)
#961
b01011 !
b01100 %
b01100 '
b001100 $
b01100 +
b01100 ,
1)
#966
0)
#971
b01100 !
b01101 %
b01101 '
b001101 $
b01101 +
b01101 ,
1)
#976
0)
#981
b01101 !
b01110 %
b01110 '
b001110 $
b01110 +
b01110 ,
1)
#986
0)
#991
b01110 !
b01111 %
b01111 '
b001111 $
b01111 +
b01111 ,
1)
#996
0)
#1001
b01111 !
b10000 %
b10000 '
b010000 $
b10000 +
b10000 ,
1)
#1006
0)
#1011
b10000 !
b10001 %
1.
1#
1*
b00000 '
b110001 $
b00000 +
b10001 ,
1)
