test_run_dir/Test2/Counter_2.vcd
$date
2021-03-23T15:04+0000
$end
$version
0.2
$end
$comment

$end
$timescale 1ns  $end
$scope module Counter_2 $end
 $var wire 1 ! clock $end
 $var wire 6 " _counter1_count_T_1 $end
 $var wire 6 # counter1 $end
 $var wire 1 $ io_result $end
 $var wire 1 % _counter1_T $end
 $var wire 6 & _GEN_0 $end
 $var wire 7 ' _counter1_count_T $end
 $var wire 1 ( reset $end
$upscope $end
$enddefinitions $end
$dumpvars
0%
b0000000 '
b000000 "
b000000 &
b000000 #
0!
0$
0(
$end
#0
b000001 "
b000001 &
b0000001 '
1(
#1
1!
#6
0!
0(
#11
1!
b000010 "
b000010 &
b000001 #
b0000010 '
#16
0!
#21
1!
b000011 "
b000011 &
b000010 #
b0000011 '
#26
0!
#31
1!
b000100 "
b000100 &
b000011 #
b0000100 '
#36
0!
#41
1!
b000101 "
b000101 &
b000100 #
b0000101 '
#46
0!
#51
1!
b000110 "
b000110 &
b000101 #
b0000110 '
#56
0!
#61
1!
b000111 "
b000111 &
b000110 #
b0000111 '
#66
0!
#71
1!
b001000 "
b001000 &
b000111 #
b0001000 '
#76
0!
#81
1!
b001001 "
b001001 &
b001000 #
b0001001 '
#86
0!
#91
1!
b001010 "
b001010 &
b001001 #
b0001010 '
#96
0!
#101
1!
1%
b001011 "
b000000 &
b001010 #
b0001011 '
#106
0!
#111
1!
0%
b000001 "
b000001 &
b000000 #
b0000001 '
#116
0!
#121
1!
b000010 "
b000010 &
b000001 #
b0000010 '
#126
0!
#131
1!
b000011 "
b000011 &
b000010 #
b0000011 '
#136
0!
#141
1!
b000100 "
b000100 &
b000011 #
b0000100 '
#146
0!
#151
1!
b000101 "
b000101 &
b000100 #
b0000101 '
#156
0!
#161
1!
b000110 "
b000110 &
b000101 #
b0000110 '
#166
0!
#171
1!
b000111 "
b000111 &
b000110 #
b0000111 '
#176
0!
#181
1!
b001000 "
b001000 &
b000111 #
b0001000 '
#186
0!
#191
1!
b001001 "
b001001 &
b001000 #
b0001001 '
#196
0!
#201
1!
b001010 "
b001010 &
b001001 #
b0001010 '
#206
0!
#211
1!
1%
b001011 "
b000000 &
b001010 #
b0001011 '
#216
0!
#221
1!
0%
b000001 "
b000001 &
b000000 #
b0000001 '
#226
0!
#231
1!
b000010 "
b000010 &
b000001 #
b0000010 '
#236
0!
#241
1!
b000011 "
b000011 &
b000010 #
b0000011 '
#246
0!
#251
1!
b000100 "
b000100 &
b000011 #
b0000100 '
#256
0!
#261
1!
b000101 "
b000101 &
b000100 #
b0000101 '
#266
0!
#271
1!
b000110 "
b000110 &
b000101 #
b0000110 '
#276
0!
#281
1!
b000111 "
b000111 &
b000110 #
b0000111 '
#286
0!
#291
1!
b001000 "
b001000 &
b000111 #
b0001000 '
#296
0!
#301
1!
b001001 "
b001001 &
b001000 #
b0001001 '
#306
0!
#311
1!
b001010 "
b001010 &
b001001 #
b0001010 '
#316
0!
#321
1!
1%
b001011 "
b000000 &
b001010 #
b0001011 '
#326
0!
#331
1!
0%
b000001 "
b000001 &
b000000 #
b0000001 '
#336
0!
#341
1!
b000010 "
b000010 &
b000001 #
b0000010 '
#346
0!
#351
1!
b000011 "
b000011 &
b000010 #
b0000011 '
#356
0!
#361
1!
b000100 "
b000100 &
b000011 #
b0000100 '
#366
0!
#371
1!
b000101 "
b000101 &
b000100 #
b0000101 '
#376
0!
#381
1!
b000110 "
b000110 &
b000101 #
b0000110 '
#386
0!
#391
1!
b000111 "
b000111 &
b000110 #
b0000111 '
#396
0!
#401
1!
b001000 "
b001000 &
b000111 #
b0001000 '
#406
0!
#411
1!
b001001 "
b001001 &
b001000 #
b0001001 '
#416
0!
#421
1!
b001010 "
b001010 &
b001001 #
b0001010 '
#426
0!
#431
1!
1%
b001011 "
b000000 &
b001010 #
b0001011 '
#436
0!
#441
1!
0%
b000001 "
b000001 &
b000000 #
b0000001 '
#446
0!
#451
1!
b000010 "
b000010 &
b000001 #
b0000010 '
#456
0!
#461
1!
b000011 "
b000011 &
b000010 #
b0000011 '
#466
0!
#471
1!
b000100 "
b000100 &
b000011 #
b0000100 '
#476
0!
#481
1!
b000101 "
b000101 &
b000100 #
b0000101 '
#486
0!
#491
1!
b000110 "
b000110 &
b000101 #
b0000110 '
#496
0!
#501
1!
b000111 "
b000111 &
b000110 #
b0000111 '
#506
0!
#511
1!
b001000 "
b001000 &
b000111 #
b0001000 '
#516
0!
#521
1!
b001001 "
b001001 &
b001000 #
b0001001 '
#526
0!
#531
1!
b001010 "
b001010 &
b001001 #
b0001010 '
#536
0!
#541
1!
1%
b001011 "
b000000 &
b001010 #
b0001011 '
#546
0!
#551
1!
0%
b000001 "
b000001 &
b000000 #
b0000001 '
#556
0!
#561
1!
b000010 "
b000010 &
b000001 #
b0000010 '
#566
0!
#571
1!
b000011 "
b000011 &
b000010 #
b0000011 '
#576
0!
#581
1!
b000100 "
b000100 &
b000011 #
b0000100 '
#586
0!
#591
1!
b000101 "
b000101 &
b000100 #
b0000101 '
#596
0!
#601
1!
b000110 "
b000110 &
b000101 #
b0000110 '
#606
0!
#611
1!
b000111 "
b000111 &
b000110 #
b0000111 '
#616
0!
#621
1!
b001000 "
b001000 &
b000111 #
b0001000 '
#626
0!
#631
1!
b001001 "
b001001 &
b001000 #
b0001001 '
#636
0!
#641
1!
b001010 "
b001010 &
b001001 #
b0001010 '
#646
0!
#651
1!
1%
b001011 "
b000000 &
b001010 #
b0001011 '
#656
0!
#661
1!
0%
b000001 "
b000001 &
b000000 #
b0000001 '
#666
0!
#671
1!
b000010 "
b000010 &
b000001 #
b0000010 '
#676
0!
#681
1!
b000011 "
b000011 &
b000010 #
b0000011 '
#686
0!
#691
1!
b000100 "
b000100 &
b000011 #
b0000100 '
#696
0!
#701
1!
b000101 "
b000101 &
b000100 #
b0000101 '
#706
0!
#711
1!
b000110 "
b000110 &
b000101 #
b0000110 '
#716
0!
#721
1!
b000111 "
b000111 &
b000110 #
b0000111 '
#726
0!
#731
1!
b001000 "
b001000 &
b000111 #
b0001000 '
#736
0!
#741
1!
b001001 "
b001001 &
b001000 #
b0001001 '
#746
0!
#751
1!
b001010 "
b001010 &
b001001 #
b0001010 '
#756
0!
#761
1!
1%
b001011 "
b000000 &
b001010 #
b0001011 '
#766
0!
#771
1!
0%
b000001 "
b000001 &
b000000 #
b0000001 '
#776
0!
#781
1!
b000010 "
b000010 &
b000001 #
b0000010 '
#786
0!
#791
1!
b000011 "
b000011 &
b000010 #
b0000011 '
#796
0!
#801
1!
b000100 "
b000100 &
b000011 #
b0000100 '
#806
0!
#811
1!
b000101 "
b000101 &
b000100 #
b0000101 '
#816
0!
#821
1!
b000110 "
b000110 &
b000101 #
b0000110 '
#826
0!
#831
1!
b000111 "
b000111 &
b000110 #
b0000111 '
#836
0!
#841
1!
b001000 "
b001000 &
b000111 #
b0001000 '
#846
0!
#851
1!
b001001 "
b001001 &
b001000 #
b0001001 '
#856
0!
#861
1!
b001010 "
b001010 &
b001001 #
b0001010 '
#866
0!
#871
1!
1%
b001011 "
b000000 &
b001010 #
b0001011 '
#876
0!
#881
1!
0%
b000001 "
b000001 &
b000000 #
b0000001 '
#886
0!
#891
1!
b000010 "
b000010 &
b000001 #
b0000010 '
#896
0!
#901
1!
b000011 "
b000011 &
b000010 #
b0000011 '
#906
0!
#911
1!
b000100 "
b000100 &
b000011 #
b0000100 '
#916
0!
#921
1!
b000101 "
b000101 &
b000100 #
b0000101 '
#926
0!
#931
1!
b000110 "
b000110 &
b000101 #
b0000110 '
#936
0!
#941
1!
b000111 "
b000111 &
b000110 #
b0000111 '
#946
0!
#951
1!
b001000 "
b001000 &
b000111 #
b0001000 '
#956
0!
#961
1!
b001001 "
b001001 &
b001000 #
b0001001 '
#966
0!
#971
1!
b001010 "
b001010 &
b001001 #
b0001010 '
#976
0!
#981
1!
1%
b001011 "
b000000 &
b001010 #
b0001011 '
#986
0!
#991
1!
0%
b000001 "
b000001 &
b000000 #
b0000001 '
#996
0!
#1001
1!
b000010 "
b000010 &
b000001 #
b0000010 '
#1006
0!
#1011
1!
b000011 "
b000011 &
b000010 #
b0000011 '
