test_run_dir/lab7/My_Queue.vcd
$date
2021-04-09T17:54+0000
$end
$version
0.2
$end
$comment

$end
$timescale 1ns  $end
$scope module My_Queue $end
 $var wire 1 ! io_f2 $end
 $var wire 3 " _GEN_22 $end
 $var wire 3 # _GEN_16 $end
 $var wire 4 $ io_out $end
 $var wire 3 % _GEN_2 $end
 $var wire 3 & _GEN_10 $end
 $var wire 1 ' _T $end
 $var wire 3 ( _GEN_19 $end
 $var wire 2 ) _GEN_5 $end
 $var wire 2 * _GEN_8 $end
 $var wire 2 + state $end
 $var wire 3 , _GEN_12 $end
 $var wire 2 - _GEN_7 $end
 $var wire 3 . _GEN_15 $end
 $var wire 1 / io_f1 $end
 $var wire 3 0 _GEN_21 $end
 $var wire 3 1 _GEN_1 $end
 $var wire 3 2 _GEN_18 $end
 $var wire 2 3 _GEN_4 $end
 $var wire 1 4 clock $end
 $var wire 3 5 _GEN_17 $end
 $var wire 1 6 io_r2 $end
 $var wire 3 7 _GEN_11 $end
 $var wire 3 8 _GEN_20 $end
 $var wire 2 9 _GEN_6 $end
 $var wire 3 : _GEN_14 $end
 $var wire 2 ; _GEN_0 $end
 $var wire 2 < _GEN_9 $end
 $var wire 1 = reset $end
 $var wire 3 > _GEN_3 $end
 $var wire 1 ? io_r1 $end
$upscope $end
$enddefinitions $end
$dumpvars
b000 1
b000 2
0'
0=
b00 )
b000 ,
06
b00 *
0!
b000 .
b0000 $
b000 &
b00 9
b000 (
b00 ;
b000 >
b00 <
04
b000 "
b000 8
b000 #
b000 :
b000 %
0/
b000 5
0?
b00 3
b00 +
b000 7
b00 -
b000 0
$end
#0
b10 <
b101 .
b01 9
1'
1=
b101 :
b100 7
b100 ,
#1
14
#6
b11 <
b001 %
04
b100 .
16
0=
b000 7
1/
b001 >
b10 )
1!
b001 0
b001 1
b11 *
b10 9
b000 :
b011 ,
b01 ;
#11
b01 3
b01 -
14
b001 &
b001 5
0'
b001 (
b001 7
b010 0
b010 8
b001 #
b001 2
b01 +
b001 :
#16
04
#21
b10 3
b10 -
14
b010 &
b010 5
b011 (
b010 7
b011 0
b011 8
b010 #
b010 2
b0011 $
b10 +
b010 :
#26
04
#31
b11 3
b11 -
14
b011 &
b011 5
b000 (
b011 7
b000 0
b000 8
b011 #
b000 2
b0000 $
b11 +
b011 :
#36
04
#41
b00 3
b001 0
b00 -
14
b000 &
b000 #
b000 5
1'
b00 +
b000 :
b000 7
#46
04
#51
b01 3
b01 -
14
b001 &
b001 5
0'
b001 (
b001 7
b010 0
b010 8
b001 #
b001 2
b01 +
b001 :
#56
04
#61
b10 3
b10 -
14
b010 &
b010 5
b011 (
b010 7
b011 0
b011 8
b010 #
b010 2
b0011 $
b10 +
b010 :
#66
04
#71
b11 3
b11 -
14
b011 &
b011 5
b000 (
b011 7
b000 0
b000 8
b011 #
b000 2
b0000 $
b11 +
b011 :
#76
04
#81
b00 3
b001 0
b00 -
14
b000 &
b000 #
b000 5
1'
b00 +
b000 :
b000 7
#86
04
#91
b01 3
b01 -
14
b001 &
b001 5
0'
b001 (
b001 7
b010 0
b010 8
b001 #
b001 2
b01 +
b001 :
#96
04
#101
b10 3
b10 -
14
b010 &
b010 5
b011 (
b010 7
b011 0
b011 8
b010 #
b010 2
b0011 $
b10 +
b010 :
#106
04
#111
b11 3
b11 -
14
b011 &
b011 5
b000 (
b011 7
b000 0
b000 8
b011 #
b000 2
b0000 $
b11 +
b011 :
#116
04
#121
b00 3
b001 0
b00 -
14
b000 &
b000 #
b000 5
1'
b00 +
b000 :
b000 7
#126
04
#131
b01 3
b01 -
14
b001 &
b001 5
0'
b001 (
b001 7
b010 0
b010 8
b001 #
b001 2
b01 +
b001 :
#136
04
#141
b10 3
b10 -
14
b010 &
b010 5
b011 (
b010 7
b011 0
b011 8
b010 #
b010 2
b0011 $
b10 +
b010 :
#146
04
#151
b11 3
b11 -
14
b011 &
b011 5
b000 (
b011 7
b000 0
b000 8
b011 #
b000 2
b0000 $
b11 +
b011 :
#156
04
#161
b00 3
b001 0
b00 -
14
b000 &
b000 #
b000 5
1'
b00 +
b000 :
b000 7
#166
04
#171
b01 3
b01 -
14
b001 &
b001 5
0'
b001 (
b001 7
b010 0
b010 8
b001 #
b001 2
b01 +
b001 :
#176
04
#181
b10 3
b10 -
14
b010 &
b010 5
b011 (
b010 7
b011 0
b011 8
b010 #
b010 2
b0011 $
b10 +
b010 :
#186
04
#191
b11 3
b11 -
14
b011 &
b011 5
b000 (
b011 7
b000 0
b000 8
b011 #
b000 2
b0000 $
b11 +
b011 :
#196
04
#201
b00 3
b001 0
b00 -
14
b000 &
b000 #
b000 5
1'
b00 +
b000 :
b000 7
#206
b10 <
b000 %
04
b101 .
06
b100 7
0/
b000 >
b00 )
0!
b000 0
b000 1
b00 *
b01 9
b101 :
b100 ,
b00 ;
