test_run_dir/lab7/Task2_lab7.vcd
$date
2021-04-15T11:43+0000
$end
$version
0.2
$end
$comment

$end
$timescale 1ns  $end
$scope module Task2_lab7 $end
 $var wire 8 ! io_out $end
 $var wire 1 " _GEN_2 $end
 $var wire 1 # _T $end
 $var wire 9 $ _register_T $end
 $var wire 1 % state $end
 $var wire 1 & io_start $end
 $var wire 1 ' _GEN_1 $end
 $var wire 1 ( clock $end
 $var wire 8 ) register $end
 $var wire 1 * io_flag $end
 $var wire 1 + _GEN_6 $end
 $var wire 9 , _register_T_1 $end
 $var wire 1 - _GEN_0 $end
 $var wire 9 . _GEN_9 $end
 $var wire 1 / io_in $end
 $var wire 1 0 reset $end
 $var wire 9 1 _GEN_3 $end
$upscope $end
$enddefinitions $end
$dumpvars
0%
0&
b00000000 )
0-
b00000000 !
0'
b000000000 ,
b000000000 $
0/
00
0(
0"
b000000000 .
0#
0*
0+
b000000000 1
$end
#0
10
1#
#1
1(
#6
00
1-
1&
1+
0(
1/
b000000001 ,
#11
1%
1"
b000000001 1
b000000001 .
0#
1*
1'
1(
#16
b000000000 1
b000000000 .
0(
0/
b000000000 ,
#21
1(
#26
b000000001 1
b000000001 .
0(
1/
b000000001 ,
#31
b00000001 !
b000000011 1
b000000011 .
b000000010 $
1(
b000000011 ,
b00000001 )
#36
b000000010 1
b000000010 .
0(
0/
b000000010 ,
#41
b00000010 !
b000000100 1
b000000100 .
b000000100 $
1(
b000000100 ,
b00000010 )
#46
0"
0&
0'
0+
0(
#51
b00000100 !
0-
0%
1#
0*
b000001000 $
1(
b000001000 ,
b00000100 )
#56
1-
1&
1+
0(
1/
b000001001 ,
#61
1%
1"
b000001001 1
b000001001 .
0#
1*
1'
1(
#66
0(
#71
b00001001 !
b000010011 1
b000010011 .
b000010010 $
1(
b000010011 ,
b00001001 )
#76
0"
b000010010 1
b000010010 .
0&
0'
0+
0(
0/
b000010010 ,
#81
b00010010 !
0-
0%
1#
0*
b000100100 $
1(
b000100100 ,
b00010010 )
