test_run_dir/lab7/Task2_lab7.vcd
$date
2021-04-15T11:13+0000
$end
$version
0.2
$end
$comment

$end
$timescale 1ns  $end
$scope module Task2_lab7 $end
 $var wire 8 ! io_out $end
 $var wire 1 " _GEN_10 $end
 $var wire 1 # _GEN_2 $end
 $var wire 1 $ _T $end
 $var wire 9 % _GEN_8 $end
 $var wire 9 & next_state $end
 $var wire 9 ' _GEN_12 $end
 $var wire 1 ( state $end
 $var wire 1 ) io_start $end
 $var wire 8 * _GEN_1 $end
 $var wire 1 + clock $end
 $var wire 8 , register $end
 $var wire 1 - io_flag $end
 $var wire 1 . _GEN_11 $end
 $var wire 1 / _GEN_14 $end
 $var wire 1 0 _GEN_6 $end
 $var wire 9 1 _GEN_0 $end
 $var wire 8 2 _GEN_9 $end
 $var wire 1 3 io_in $end
 $var wire 1 4 reset $end
 $var wire 9 5 _next_state_T $end
$upscope $end
$enddefinitions $end
$dumpvars
04
0-
b00000000 !
0.
b000000000 %
0/
b00000000 2
b00000000 *
b000000000 &
b000000000 5
00
0(
0"
b000000000 '
0)
b00000000 ,
0#
0+
b000000000 1
0$
03
$end
#0
14
1$
#1
1+
#6
13
1-
04
b000000001 1
b000000001 &
1#
b000000001 '
0+
1/
1)
#11
b000000011 %
1.
b000000011 &
b000000010 5
b000000011 '
1(
0/
b00000001 !
b000000011 1
b00000001 2
b00000001 *
0$
1+
b00000001 ,
#16
03
b000000010 %
b000000010 1
b000000010 &
b000000010 '
0+
#21
b00000010 !
b000000100 1
0.
b000000100 &
b000000100 5
b00000000 2
b00000010 *
b000000100 '
1$
1+
0(
1/
b00000010 ,
#26
13
b000000101 1
b000000101 &
b000000101 '
0+
#31
b000001011 %
1.
b000001011 &
b000001010 5
b000001011 '
1(
0/
b00000101 !
b000001011 1
b00000101 2
b00000101 *
0$
1+
b00000101 ,
#36
03
b000001010 %
b000001010 1
b000001010 &
b000001010 '
0+
#41
b00001010 !
b000010100 1
0.
b000010100 &
b000010100 5
b00000000 2
b00001010 *
b000010100 '
1$
1+
0(
1/
b00001010 ,
#46
b00000000 !
0-
b000001010 1
0#
b00000000 *
b000001010 '
0+
0/
0)
#51
1+
#56
b00001010 !
13
1-
b000010101 1
b000010101 &
1#
b00001010 *
b000010101 '
0+
1/
1)
#61
b000101011 %
1.
b000101011 &
b000101010 5
b000101011 '
1(
0/
b00010101 !
b000101011 1
b00010101 2
b00010101 *
0$
1+
b00010101 ,
#66
0+
#71
b00101011 !
b001010111 1
0.
b001010111 &
b001010110 5
b00000000 2
b00101011 *
b001010111 '
1$
1+
0(
1/
b00101011 ,
#76
03
b00000000 !
0-
b000101011 1
b001010110 &
0#
b00000000 *
b000101011 '
0+
0/
0)
