test_run_dir/lab7/Task2_lab7.vcd
$date
2021-04-10T19:10+0000
$end
$version
0.2
$end
$comment

$end
$timescale 1ns  $end
$scope module Task2_lab7 $end
 $var wire 9 ! _state_T $end
 $var wire 8 " io_out $end
 $var wire 9 # _GEN_2 $end
 $var wire 9 $ state $end
 $var wire 1 % io_start $end
 $var wire 1 & clock $end
 $var wire 8 ' register $end
 $var wire 1 ( io_flag $end
 $var wire 8 ) _GEN_0 $end
 $var wire 1 * io_in $end
 $var wire 1 + reset $end
$upscope $end
$enddefinitions $end
$dumpvars
0%
0&
b00000000 )
0*
b00000000 "
b000000000 !
b000000000 $
0+
b00000000 '
b000000000 #
0(
$end
#0
1+
#1
1&
#6
1%
0&
b000000001 #
1*
b000000001 $
0+
1(
#11
b000000010 !
b00000001 "
1&
b000000011 #
b00000001 '
b000000011 $
#16
0&
b000000010 #
0*
b000000010 $
#21
b000000100 !
b00000010 "
1&
b000000100 #
b00000010 '
b000000100 $
#26
0&
b000000101 #
1*
b000000101 $
#31
b000001010 !
b00000101 "
1&
b000001011 #
b00000101 '
b000001011 $
#36
0&
b000001010 #
0*
b000001010 $
#41
b000010100 !
b00001010 "
1&
b000010100 #
b00001010 '
b000010100 $
#46
0&
#51
b000101000 !
b00010100 "
1&
b000101000 #
b00010100 '
b000101000 $
#56
0&
b000101001 #
1*
b000101001 $
#61
b001010010 !
b00101001 "
1&
b001010011 #
b00101001 '
b001010011 $
#66
0&
b001010010 #
0*
b001010010 $
#71
b010100100 !
b01010010 "
1&
b010100100 #
b01010010 '
b010100100 $
#76
0&
#81
b101001000 !
b10100100 "
1&
b101001000 #
b10100100 '
b101001000 $
#86
0&
b101001001 #
1*
b101001001 $
#91
b010010010 !
b01001001 "
1&
b010010011 #
b01001001 '
b010010011 $
#96
0&
#101
b100100110 !
b10010011 "
1&
b100100111 #
b10010011 '
b100100111 $
#106
0%
0&
b010010011 #
0*
b100100110 $
0(
b10010011 )
#111
1&
#116
0&
#121
1&
#126
1%
0&
b100100111 #
1*
b100100111 $
1(
b00000000 )
#131
b001001110 !
b00100111 "
1&
b001001111 #
b00100111 '
b001001111 $
#136
0&
#141
b010011110 !
b01001111 "
1&
b010011111 #
b01001111 '
b010011111 $
#146
0%
0&
b001001111 #
0*
b010011110 $
0(
b01001111 )
