test_run_dir/TASK_2_TEST/counter_up_down.vcd
$date
2021-03-24T16:06+0000
$end
$version
0.2
$end
$comment

$end
$timescale 1ns  $end
$scope module counter_up_down $end
 $var wire 1 ! io_out $end
 $var wire 1 " _GEN_2 $end
 $var wire 1 # _T $end
 $var wire 5 $ _counter_T_2 $end
 $var wire 4 % io_data_in $end
 $var wire 5 & _counter_T $end
 $var wire 4 ' _GEN_1 $end
 $var wire 4 ( _counter_T_1 $end
 $var wire 1 ) _GEN_4 $end
 $var wire 4 * counter $end
 $var wire 1 + clock $end
 $var wire 1 , flag $end
 $var wire 1 - io_reload $end
 $var wire 4 . _counter_T_3 $end
 $var wire 1 / _GEN_0 $end
 $var wire 1 0 reset $end
 $var wire 4 1 _GEN_3 $end
$upscope $end
$enddefinitions $end
$dumpvars
b0000 '
b0000 .
b00000 $
b0000 (
0-
b00000 &
0/
b0000 1
0!
00
0"
b0000 *
0)
0#
0+
b0000 %
0,
$end
#0
1!
10
b0001 1
b1111 .
b00001 &
1#
b0001 '
b11111 $
b0001 (
#1
1+
#6
00
0+
#11
0!
b0010 1
b0000 .
b00010 &
b0001 *
b0010 '
b00000 $
1+
b0010 (
#16
0+
#21
b0011 1
b0001 .
b00011 &
b0010 *
b0011 '
b00001 $
1+
b0011 (
#26
0+
#31
b0100 1
b0010 .
b00100 &
b0011 *
b0100 '
b00010 $
1+
b0100 (
#36
0+
#41
b0101 1
b0011 .
b00101 &
b0100 *
b0101 '
b00011 $
1+
b0101 (
#46
0+
#51
b0110 1
b0100 .
b00110 &
b0101 *
b0110 '
b00100 $
1+
b0110 (
#56
0+
#61
1!
1"
b0101 .
b00111 &
b0110 *
b00101 $
1+
b0111 (
1/
1)
#66
0+
#71
b0101 1
0#
1+
1,
#76
0+
#81
0!
b0100 1
b0100 .
b00110 &
b0101 *
b0101 '
b00100 $
1+
b0110 (
#86
0+
#91
b0011 1
b0011 .
b00101 &
b0100 *
b0100 '
b00011 $
1+
b0101 (
#96
0+
#101
b0010 1
b0010 .
b00100 &
b0011 *
b0011 '
b00010 $
1+
b0100 (
#106
0+
#111
b0001 1
b0001 .
b00011 &
b0010 *
b0010 '
b00001 $
1+
b0011 (
#116
0+
#121
b0000 1
b0000 .
b00010 &
b0001 *
b0001 '
b00000 $
1+
b0010 (
#126
0+
#131
1!
b1111 1
b1111 .
b00001 &
b0000 *
b0000 '
b11111 $
1+
b0001 (
0)
#136
0+
#141
0!
0"
b0000 1
b1110 .
b10000 &
1#
b1111 *
b01110 $
1+
b0000 (
0/
0,
#146
0+
#151
1!
b0001 1
b1111 .
b00001 &
b0000 *
b0001 '
b11111 $
1+
b0001 (
#156
0+
#161
0!
b0010 1
b0000 .
b00010 &
b0001 *
b0010 '
b00000 $
1+
b0010 (
#166
0+
#171
b0011 1
b0001 .
b00011 &
b0010 *
b0011 '
b00001 $
1+
b0011 (
#176
0+
#181
b0100 1
b0010 .
b00100 &
b0011 *
b0100 '
b00010 $
1+
b0100 (
#186
0+
#191
b0101 1
b0011 .
b00101 &
b0100 *
b0101 '
b00011 $
1+
b0101 (
#196
0+
#201
b0110 1
b0100 .
b00110 &
b0101 *
b0110 '
b00100 $
1+
b0110 (
#206
0+
#211
1!
1"
b0101 .
b00111 &
b0110 *
b00101 $
1+
b0111 (
1/
1)
#216
0+
#221
b0101 1
0#
1+
1,
#226
0+
#231
0!
b0100 1
b0100 .
b00110 &
b0101 *
b0101 '
b00100 $
1+
b0110 (
#236
0+
#241
b0011 1
b0011 .
b00101 &
b0100 *
b0100 '
b00011 $
1+
b0101 (
#246
0+
#251
b0010 1
b0010 .
b00100 &
b0011 *
b0011 '
b00010 $
1+
b0100 (
#256
0+
#261
b0001 1
b0001 .
b00011 &
b0010 *
b0010 '
b00001 $
1+
b0011 (
#266
0+
#271
b0000 1
b0000 .
b00010 &
b0001 *
b0001 '
b00000 $
1+
b0010 (
#276
0+
#281
1!
b1111 1
b1111 .
b00001 &
b0000 *
b0000 '
b11111 $
1+
b0001 (
0)
#286
0+
#291
0!
0"
b0000 1
b1110 .
b10000 &
1#
b1111 *
b01110 $
1+
b0000 (
0/
0,
#296
0+
#301
1!
b0001 1
b1111 .
b00001 &
b0000 *
b0001 '
b11111 $
1+
b0001 (
#306
0+
#311
0!
b0010 1
b0000 .
b00010 &
b0001 *
b0010 '
b00000 $
1+
b0010 (
#316
0+
#321
b0011 1
b0001 .
b00011 &
b0010 *
b0011 '
b00001 $
1+
b0011 (
#326
0+
#331
b0100 1
b0010 .
b00100 &
b0011 *
b0100 '
b00010 $
1+
b0100 (
#336
0+
#341
b0101 1
b0011 .
b00101 &
b0100 *
b0101 '
b00011 $
1+
b0101 (
#346
0+
#351
b0110 1
b0100 .
b00110 &
b0101 *
b0110 '
b00100 $
1+
b0110 (
#356
0+
#361
1!
1"
b0101 .
b00111 &
b0110 *
b00101 $
1+
b0111 (
1/
1)
#366
0+
#371
b0101 1
0#
1+
1,
#376
0+
#381
0!
b0100 1
b0100 .
b00110 &
b0101 *
b0101 '
b00100 $
1+
b0110 (
#386
0+
#391
b0011 1
b0011 .
b00101 &
b0100 *
b0100 '
b00011 $
1+
b0101 (
#396
0+
#401
b0010 1
b0010 .
b00100 &
b0011 *
b0011 '
b00010 $
1+
b0100 (
#406
0+
#411
b0001 1
b0001 .
b00011 &
b0010 *
b0010 '
b00001 $
1+
b0011 (
#416
0+
#421
b0000 1
b0000 .
b00010 &
b0001 *
b0001 '
b00000 $
1+
b0010 (
#426
0+
#431
1!
b1111 1
b1111 .
b00001 &
b0000 *
b0000 '
b11111 $
1+
b0001 (
0)
#436
0+
#441
0!
0"
b0000 1
b1110 .
b10000 &
1#
b1111 *
b01110 $
1+
b0000 (
0/
0,
#446
0+
#451
1!
b0001 1
b1111 .
b00001 &
b0000 *
b0001 '
b11111 $
1+
b0001 (
#456
0+
#461
0!
b0010 1
b0000 .
b00010 &
b0001 *
b0010 '
b00000 $
1+
b0010 (
#466
0+
#471
b0011 1
b0001 .
b00011 &
b0010 *
b0011 '
b00001 $
1+
b0011 (
#476
0+
#481
b0100 1
b0010 .
b00100 &
b0011 *
b0100 '
b00010 $
1+
b0100 (
#486
0+
#491
b0101 1
b0011 .
b00101 &
b0100 *
b0101 '
b00011 $
1+
b0101 (
#496
0+
#501
b0110 1
b0100 .
b00110 &
b0101 *
b0110 '
b00100 $
1+
b0110 (
#506
0+
#511
1!
1"
b0101 .
b00111 &
b0110 *
b00101 $
1+
b0111 (
1/
1)
#516
0+
#521
b0101 1
0#
1+
1,
#526
0+
#531
0!
b0100 1
b0100 .
b00110 &
b0101 *
b0101 '
b00100 $
1+
b0110 (
#536
0+
#541
b0011 1
b0011 .
b00101 &
b0100 *
b0100 '
b00011 $
1+
b0101 (
#546
0+
#551
b0010 1
b0010 .
b00100 &
b0011 *
b0011 '
b00010 $
1+
b0100 (
#556
0+
#561
b0001 1
b0001 .
b00011 &
b0010 *
b0010 '
b00001 $
1+
b0011 (
#566
0+
#571
b0000 1
b0000 .
b00010 &
b0001 *
b0001 '
b00000 $
1+
b0010 (
#576
0+
#581
1!
b1111 1
b1111 .
b00001 &
b0000 *
b0000 '
b11111 $
1+
b0001 (
0)
#586
0+
#591
0!
0"
b0000 1
b1110 .
b10000 &
1#
b1111 *
b01110 $
1+
b0000 (
0/
0,
#596
0+
#601
1!
b0001 1
b1111 .
b00001 &
b0000 *
b0001 '
b11111 $
1+
b0001 (
#606
0+
#611
0!
b0010 1
b0000 .
b00010 &
b0001 *
b0010 '
b00000 $
1+
b0010 (
#616
0+
#621
b0011 1
b0001 .
b00011 &
b0010 *
b0011 '
b00001 $
1+
b0011 (
#626
0+
#631
b0100 1
b0010 .
b00100 &
b0011 *
b0100 '
b00010 $
1+
b0100 (
#636
0+
#641
b0101 1
b0011 .
b00101 &
b0100 *
b0101 '
b00011 $
1+
b0101 (
#646
0+
#651
b0110 1
b0100 .
b00110 &
b0101 *
b0110 '
b00100 $
1+
b0110 (
#656
0+
#661
1!
1"
b0101 .
b00111 &
b0110 *
b00101 $
1+
b0111 (
1/
1)
#666
0+
#671
b0101 1
0#
1+
1,
#676
0+
#681
0!
b0100 1
b0100 .
b00110 &
b0101 *
b0101 '
b00100 $
1+
b0110 (
#686
0+
#691
b0011 1
b0011 .
b00101 &
b0100 *
b0100 '
b00011 $
1+
b0101 (
#696
0+
#701
b0010 1
b0010 .
b00100 &
b0011 *
b0011 '
b00010 $
1+
b0100 (
#706
0+
#711
b0001 1
b0001 .
b00011 &
b0010 *
b0010 '
b00001 $
1+
b0011 (
#716
0+
#721
b0000 1
b0000 .
b00010 &
b0001 *
b0001 '
b00000 $
1+
b0010 (
#726
0+
#731
1!
b1111 1
b1111 .
b00001 &
b0000 *
b0000 '
b11111 $
1+
b0001 (
0)
#736
0+
#741
0!
0"
b0000 1
b1110 .
b10000 &
1#
b1111 *
b01110 $
1+
b0000 (
0/
0,
#746
0+
#751
1!
b0001 1
b1111 .
b00001 &
b0000 *
b0001 '
b11111 $
1+
b0001 (
#756
0+
#761
0!
b0010 1
b0000 .
b00010 &
b0001 *
b0010 '
b00000 $
1+
b0010 (
#766
0+
#771
b0011 1
b0001 .
b00011 &
b0010 *
b0011 '
b00001 $
1+
b0011 (
#776
0+
#781
b0100 1
b0010 .
b00100 &
b0011 *
b0100 '
b00010 $
1+
b0100 (
#786
0+
#791
b0101 1
b0011 .
b00101 &
b0100 *
b0101 '
b00011 $
1+
b0101 (
#796
0+
#801
b0110 1
b0100 .
b00110 &
b0101 *
b0110 '
b00100 $
1+
b0110 (
#806
0+
#811
1!
1"
b0101 .
b00111 &
b0110 *
b00101 $
1+
b0111 (
1/
1)
#816
0+
#821
b0101 1
0#
1+
1,
#826
0+
#831
0!
b0100 1
b0100 .
b00110 &
b0101 *
b0101 '
b00100 $
1+
b0110 (
#836
0+
#841
b0011 1
b0011 .
b00101 &
b0100 *
b0100 '
b00011 $
1+
b0101 (
#846
0+
#851
b0010 1
b0010 .
b00100 &
b0011 *
b0011 '
b00010 $
1+
b0100 (
#856
0+
#861
b0001 1
b0001 .
b00011 &
b0010 *
b0010 '
b00001 $
1+
b0011 (
#866
0+
#871
b0000 1
b0000 .
b00010 &
b0001 *
b0001 '
b00000 $
1+
b0010 (
#876
0+
#881
1!
b1111 1
b1111 .
b00001 &
b0000 *
b0000 '
b11111 $
1+
b0001 (
0)
#886
0+
#891
0!
0"
b0000 1
b1110 .
b10000 &
1#
b1111 *
b01110 $
1+
b0000 (
0/
0,
#896
0+
#901
1!
b0001 1
b1111 .
b00001 &
b0000 *
b0001 '
b11111 $
1+
b0001 (
#906
0+
#911
0!
b0010 1
b0000 .
b00010 &
b0001 *
b0010 '
b00000 $
1+
b0010 (
#916
0+
#921
b0011 1
b0001 .
b00011 &
b0010 *
b0011 '
b00001 $
1+
b0011 (
#926
0+
#931
b0100 1
b0010 .
b00100 &
b0011 *
b0100 '
b00010 $
1+
b0100 (
#936
0+
#941
b0101 1
b0011 .
b00101 &
b0100 *
b0101 '
b00011 $
1+
b0101 (
#946
0+
#951
b0110 1
b0100 .
b00110 &
b0101 *
b0110 '
b00100 $
1+
b0110 (
#956
0+
#961
1!
1"
b0101 .
b00111 &
b0110 *
b00101 $
1+
b0111 (
1/
1)
#966
0+
#971
b0101 1
0#
1+
1,
#976
0+
#981
0!
b0100 1
b0100 .
b00110 &
b0101 *
b0101 '
b00100 $
1+
b0110 (
#986
0+
#991
b0011 1
b0011 .
b00101 &
b0100 *
b0100 '
b00011 $
1+
b0101 (
#996
0+
#1001
b0010 1
b0010 .
b00100 &
b0011 *
b0011 '
b00010 $
1+
b0100 (
#1006
0+
#1011
b0001 1
b0001 .
b00011 &
b0010 *
b0010 '
b00001 $
1+
b0011 (
