test_run_dir/lab6/counter.vcd
$date
2021-04-06T18:29+0000
$end
$version
0.2
$end
$comment

$end
$timescale 1ns  $end
$scope module counter $end
 $var wire 2 ! io_out $end
 $var wire 2 " count_buffer $end
 $var wire 2 # counter $end
 $var wire 1 $ clock $end
 $var wire 3 % _count_buffer_T $end
 $var wire 1 & reset $end
$upscope $end
$enddefinitions $end
$dumpvars
b00 #
0&
b00 !
b000 %
0$
b00 "
$end
#0
b001 %
b01 "
1&
#1
1$
#6
0&
0$
#11
b01 !
b010 %
b10 "
b01 #
1$
#16
0$
#21
b10 !
b011 %
b11 "
b10 #
1$
#26
0$
#31
b11 !
b100 %
b00 "
b11 #
1$
#36
0$
#41
b00 !
b001 %
b01 "
b00 #
1$
#46
0$
#51
b01 !
b010 %
b10 "
b01 #
1$
#56
0$
#61
b10 !
b011 %
b11 "
b10 #
1$
#66
0$
#71
b11 !
b100 %
b00 "
b11 #
1$
#76
0$
#81
b00 !
b001 %
b01 "
b00 #
1$
#86
0$
#91
b01 !
b010 %
b10 "
b01 #
1$
#96
0$
#101
b10 !
b011 %
b11 "
b10 #
1$
#106
0$
#111
b11 !
b100 %
b00 "
b11 #
1$
#116
0$
#121
b00 !
b001 %
b01 "
b00 #
1$
#126
0$
#131
b01 !
b010 %
b10 "
b01 #
1$
#136
0$
#141
b10 !
b011 %
b11 "
b10 #
1$
#146
0$
#151
b11 !
b100 %
b00 "
b11 #
1$
#156
0$
#161
b00 !
b001 %
b01 "
b00 #
1$
#166
0$
#171
b01 !
b010 %
b10 "
b01 #
1$
#176
0$
#181
b10 !
b011 %
b11 "
b10 #
1$
#186
0$
#191
b11 !
b100 %
b00 "
b11 #
1$
#196
0$
#201
b00 !
b001 %
b01 "
b00 #
1$
#206
0$
#211
b01 !
b010 %
b10 "
b01 #
1$
#216
0$
#221
b10 !
b011 %
b11 "
b10 #
1$
#226
0$
#231
b11 !
b100 %
b00 "
b11 #
1$
#236
0$
#241
b00 !
b001 %
b01 "
b00 #
1$
#246
0$
#251
b01 !
b010 %
b10 "
b01 #
1$
#256
0$
#261
b10 !
b011 %
b11 "
b10 #
1$
#266
0$
#271
b11 !
b100 %
b00 "
b11 #
1$
#276
0$
#281
b00 !
b001 %
b01 "
b00 #
1$
#286
0$
#291
b01 !
b010 %
b10 "
b01 #
1$
#296
0$
#301
b10 !
b011 %
b11 "
b10 #
1$
#306
0$
#311
b11 !
b100 %
b00 "
b11 #
1$
#316
0$
#321
b00 !
b001 %
b01 "
b00 #
1$
#326
0$
#331
b01 !
b010 %
b10 "
b01 #
1$
#336
0$
#341
b10 !
b011 %
b11 "
b10 #
1$
#346
0$
#351
b11 !
b100 %
b00 "
b11 #
1$
#356
0$
#361
b00 !
b001 %
b01 "
b00 #
1$
#366
0$
#371
b01 !
b010 %
b10 "
b01 #
1$
#376
0$
#381
b10 !
b011 %
b11 "
b10 #
1$
#386
0$
#391
b11 !
b100 %
b00 "
b11 #
1$
#396
0$
#401
b00 !
b001 %
b01 "
b00 #
1$
#406
0$
#411
b01 !
b010 %
b10 "
b01 #
1$
#416
0$
#421
b10 !
b011 %
b11 "
b10 #
1$
#426
0$
#431
b11 !
b100 %
b00 "
b11 #
1$
#436
0$
#441
b00 !
b001 %
b01 "
b00 #
1$
#446
0$
#451
b01 !
b010 %
b10 "
b01 #
1$
#456
0$
#461
b10 !
b011 %
b11 "
b10 #
1$
#466
0$
#471
b11 !
b100 %
b00 "
b11 #
1$
#476
0$
#481
b00 !
b001 %
b01 "
b00 #
1$
#486
0$
#491
b01 !
b010 %
b10 "
b01 #
1$
#496
0$
#501
b10 !
b011 %
b11 "
b10 #
1$
#506
0$
#511
b11 !
b100 %
b00 "
b11 #
1$
#516
0$
#521
b00 !
b001 %
b01 "
b00 #
1$
#526
0$
#531
b01 !
b010 %
b10 "
b01 #
1$
#536
0$
#541
b10 !
b011 %
b11 "
b10 #
1$
#546
0$
#551
b11 !
b100 %
b00 "
b11 #
1$
#556
0$
#561
b00 !
b001 %
b01 "
b00 #
1$
#566
0$
#571
b01 !
b010 %
b10 "
b01 #
1$
#576
0$
#581
b10 !
b011 %
b11 "
b10 #
1$
#586
0$
#591
b11 !
b100 %
b00 "
b11 #
1$
#596
0$
#601
b00 !
b001 %
b01 "
b00 #
1$
#606
0$
#611
b01 !
b010 %
b10 "
b01 #
1$
#616
0$
#621
b10 !
b011 %
b11 "
b10 #
1$
#626
0$
#631
b11 !
b100 %
b00 "
b11 #
1$
#636
0$
#641
b00 !
b001 %
b01 "
b00 #
1$
#646
0$
#651
b01 !
b010 %
b10 "
b01 #
1$
#656
0$
#661
b10 !
b011 %
b11 "
b10 #
1$
#666
0$
#671
b11 !
b100 %
b00 "
b11 #
1$
#676
0$
#681
b00 !
b001 %
b01 "
b00 #
1$
#686
0$
#691
b01 !
b010 %
b10 "
b01 #
1$
#696
0$
#701
b10 !
b011 %
b11 "
b10 #
1$
#706
0$
#711
b11 !
b100 %
b00 "
b11 #
1$
#716
0$
#721
b00 !
b001 %
b01 "
b00 #
1$
#726
0$
#731
b01 !
b010 %
b10 "
b01 #
1$
#736
0$
#741
b10 !
b011 %
b11 "
b10 #
1$
#746
0$
#751
b11 !
b100 %
b00 "
b11 #
1$
#756
0$
#761
b00 !
b001 %
b01 "
b00 #
1$
#766
0$
#771
b01 !
b010 %
b10 "
b01 #
1$
#776
0$
#781
b10 !
b011 %
b11 "
b10 #
1$
#786
0$
#791
b11 !
b100 %
b00 "
b11 #
1$
#796
0$
#801
b00 !
b001 %
b01 "
b00 #
1$
#806
0$
#811
b01 !
b010 %
b10 "
b01 #
1$
#816
0$
#821
b10 !
b011 %
b11 "
b10 #
1$
#826
0$
#831
b11 !
b100 %
b00 "
b11 #
1$
#836
0$
#841
b00 !
b001 %
b01 "
b00 #
1$
#846
0$
#851
b01 !
b010 %
b10 "
b01 #
1$
#856
0$
#861
b10 !
b011 %
b11 "
b10 #
1$
#866
0$
#871
b11 !
b100 %
b00 "
b11 #
1$
#876
0$
#881
b00 !
b001 %
b01 "
b00 #
1$
#886
0$
#891
b01 !
b010 %
b10 "
b01 #
1$
#896
0$
#901
b10 !
b011 %
b11 "
b10 #
1$
#906
0$
#911
b11 !
b100 %
b00 "
b11 #
1$
#916
0$
#921
b00 !
b001 %
b01 "
b00 #
1$
#926
0$
#931
b01 !
b010 %
b10 "
b01 #
1$
#936
0$
#941
b10 !
b011 %
b11 "
b10 #
1$
#946
0$
#951
b11 !
b100 %
b00 "
b11 #
1$
#956
0$
#961
b00 !
b001 %
b01 "
b00 #
1$
#966
0$
#971
b01 !
b010 %
b10 "
b01 #
1$
#976
0$
#981
b10 !
b011 %
b11 "
b10 #
1$
#986
0$
#991
b11 !
b100 %
b00 "
b11 #
1$
#996
0$
#1001
b00 !
b001 %
b01 "
b00 #
1$
#1006
0$
#1011
b01 !
b010 %
b10 "
b01 #
1$
