test_run_dir/lab6/counter1.vcd
$date
2021-04-07T16:05+0000
$end
$version
0.2
$end
$comment

$end
$timescale 1ns  $end
$scope module counter1 $end
 $var wire 4 ! io_out $end
 $var wire 4 " count_buffer $end
 $var wire 4 # _count_buffer_T_3 $end
 $var wire 5 $ _count_buffer_T_2 $end
 $var wire 4 % counter $end
 $var wire 1 & clock $end
 $var wire 1 ' _count_buffer_T $end
 $var wire 1 ( reset $end
$upscope $end
$enddefinitions $end
$dumpvars
0&
b00000 $
0'
b0000 !
b0000 %
b0000 "
b0000 #
0(
$end
#0
b0001 "
b0001 #
b00001 $
1(
#1
1&
#6
0&
0(
#11
b0001 !
b0001 %
b0010 "
1&
b0010 #
b00010 $
#16
0&
#21
b0010 !
b0010 %
b0011 "
1&
b0011 #
b00011 $
#26
0&
#31
b0011 !
b0011 %
b0100 "
1&
b0100 #
b00100 $
#36
0&
#41
b0100 !
b0100 %
b0101 "
1&
b0101 #
b00101 $
#46
0&
#51
b0101 !
b0101 %
b0110 "
1&
b0110 #
b00110 $
#56
0&
#61
b0110 !
b0110 %
b0111 "
1&
b0111 #
b00111 $
#66
0&
#71
b0111 !
b0111 %
b1000 "
1&
b1000 #
b01000 $
#76
0&
#81
b1000 !
b1000 %
b0000 "
1&
b1001 #
1'
b01001 $
#86
0&
#91
b0000 !
b0000 %
b0001 "
1&
b0001 #
0'
b00001 $
#96
0&
#101
b0001 !
b0001 %
b0010 "
1&
b0010 #
b00010 $
#106
0&
#111
b0010 !
b0010 %
b0011 "
1&
b0011 #
b00011 $
#116
0&
#121
b0011 !
b0011 %
b0100 "
1&
b0100 #
b00100 $
#126
0&
#131
b0100 !
b0100 %
b0101 "
1&
b0101 #
b00101 $
#136
0&
#141
b0101 !
b0101 %
b0110 "
1&
b0110 #
b00110 $
#146
0&
#151
b0110 !
b0110 %
b0111 "
1&
b0111 #
b00111 $
#156
0&
#161
b0111 !
b0111 %
b1000 "
1&
b1000 #
b01000 $
#166
0&
#171
b1000 !
b1000 %
b0000 "
1&
b1001 #
1'
b01001 $
#176
0&
#181
b0000 !
b0000 %
b0001 "
1&
b0001 #
0'
b00001 $
#186
0&
#191
b0001 !
b0001 %
b0010 "
1&
b0010 #
b00010 $
#196
0&
#201
b0010 !
b0010 %
b0011 "
1&
b0011 #
b00011 $
#206
0&
#211
b0011 !
b0011 %
b0100 "
1&
b0100 #
b00100 $
#216
0&
#221
b0100 !
b0100 %
b0101 "
1&
b0101 #
b00101 $
#226
0&
#231
b0101 !
b0101 %
b0110 "
1&
b0110 #
b00110 $
#236
0&
#241
b0110 !
b0110 %
b0111 "
1&
b0111 #
b00111 $
#246
0&
#251
b0111 !
b0111 %
b1000 "
1&
b1000 #
b01000 $
#256
0&
#261
b1000 !
b1000 %
b0000 "
1&
b1001 #
1'
b01001 $
#266
0&
#271
b0000 !
b0000 %
b0001 "
1&
b0001 #
0'
b00001 $
#276
0&
#281
b0001 !
b0001 %
b0010 "
1&
b0010 #
b00010 $
#286
0&
#291
b0010 !
b0010 %
b0011 "
1&
b0011 #
b00011 $
#296
0&
#301
b0011 !
b0011 %
b0100 "
1&
b0100 #
b00100 $
#306
0&
#311
b0100 !
b0100 %
b0101 "
1&
b0101 #
b00101 $
#316
0&
#321
b0101 !
b0101 %
b0110 "
1&
b0110 #
b00110 $
#326
0&
#331
b0110 !
b0110 %
b0111 "
1&
b0111 #
b00111 $
#336
0&
#341
b0111 !
b0111 %
b1000 "
1&
b1000 #
b01000 $
#346
0&
#351
b1000 !
b1000 %
b0000 "
1&
b1001 #
1'
b01001 $
#356
0&
#361
b0000 !
b0000 %
b0001 "
1&
b0001 #
0'
b00001 $
#366
0&
#371
b0001 !
b0001 %
b0010 "
1&
b0010 #
b00010 $
#376
0&
#381
b0010 !
b0010 %
b0011 "
1&
b0011 #
b00011 $
#386
0&
#391
b0011 !
b0011 %
b0100 "
1&
b0100 #
b00100 $
#396
0&
#401
b0100 !
b0100 %
b0101 "
1&
b0101 #
b00101 $
#406
0&
#411
b0101 !
b0101 %
b0110 "
1&
b0110 #
b00110 $
#416
0&
#421
b0110 !
b0110 %
b0111 "
1&
b0111 #
b00111 $
#426
0&
#431
b0111 !
b0111 %
b1000 "
1&
b1000 #
b01000 $
#436
0&
#441
b1000 !
b1000 %
b0000 "
1&
b1001 #
1'
b01001 $
#446
0&
#451
b0000 !
b0000 %
b0001 "
1&
b0001 #
0'
b00001 $
#456
0&
#461
b0001 !
b0001 %
b0010 "
1&
b0010 #
b00010 $
#466
0&
#471
b0010 !
b0010 %
b0011 "
1&
b0011 #
b00011 $
#476
0&
#481
b0011 !
b0011 %
b0100 "
1&
b0100 #
b00100 $
#486
0&
#491
b0100 !
b0100 %
b0101 "
1&
b0101 #
b00101 $
#496
0&
#501
b0101 !
b0101 %
b0110 "
1&
b0110 #
b00110 $
#506
0&
#511
b0110 !
b0110 %
b0111 "
1&
b0111 #
b00111 $
#516
0&
#521
b0111 !
b0111 %
b1000 "
1&
b1000 #
b01000 $
#526
0&
#531
b1000 !
b1000 %
b0000 "
1&
b1001 #
1'
b01001 $
#536
0&
#541
b0000 !
b0000 %
b0001 "
1&
b0001 #
0'
b00001 $
#546
0&
#551
b0001 !
b0001 %
b0010 "
1&
b0010 #
b00010 $
#556
0&
#561
b0010 !
b0010 %
b0011 "
1&
b0011 #
b00011 $
#566
0&
#571
b0011 !
b0011 %
b0100 "
1&
b0100 #
b00100 $
#576
0&
#581
b0100 !
b0100 %
b0101 "
1&
b0101 #
b00101 $
#586
0&
#591
b0101 !
b0101 %
b0110 "
1&
b0110 #
b00110 $
#596
0&
#601
b0110 !
b0110 %
b0111 "
1&
b0111 #
b00111 $
#606
0&
#611
b0111 !
b0111 %
b1000 "
1&
b1000 #
b01000 $
#616
0&
#621
b1000 !
b1000 %
b0000 "
1&
b1001 #
1'
b01001 $
#626
0&
#631
b0000 !
b0000 %
b0001 "
1&
b0001 #
0'
b00001 $
#636
0&
#641
b0001 !
b0001 %
b0010 "
1&
b0010 #
b00010 $
#646
0&
#651
b0010 !
b0010 %
b0011 "
1&
b0011 #
b00011 $
#656
0&
#661
b0011 !
b0011 %
b0100 "
1&
b0100 #
b00100 $
#666
0&
#671
b0100 !
b0100 %
b0101 "
1&
b0101 #
b00101 $
#676
0&
#681
b0101 !
b0101 %
b0110 "
1&
b0110 #
b00110 $
#686
0&
#691
b0110 !
b0110 %
b0111 "
1&
b0111 #
b00111 $
#696
0&
#701
b0111 !
b0111 %
b1000 "
1&
b1000 #
b01000 $
#706
0&
#711
b1000 !
b1000 %
b0000 "
1&
b1001 #
1'
b01001 $
#716
0&
#721
b0000 !
b0000 %
b0001 "
1&
b0001 #
0'
b00001 $
#726
0&
#731
b0001 !
b0001 %
b0010 "
1&
b0010 #
b00010 $
#736
0&
#741
b0010 !
b0010 %
b0011 "
1&
b0011 #
b00011 $
#746
0&
#751
b0011 !
b0011 %
b0100 "
1&
b0100 #
b00100 $
#756
0&
#761
b0100 !
b0100 %
b0101 "
1&
b0101 #
b00101 $
#766
0&
#771
b0101 !
b0101 %
b0110 "
1&
b0110 #
b00110 $
#776
0&
#781
b0110 !
b0110 %
b0111 "
1&
b0111 #
b00111 $
#786
0&
#791
b0111 !
b0111 %
b1000 "
1&
b1000 #
b01000 $
#796
0&
#801
b1000 !
b1000 %
b0000 "
1&
b1001 #
1'
b01001 $
#806
0&
#811
b0000 !
b0000 %
b0001 "
1&
b0001 #
0'
b00001 $
#816
0&
#821
b0001 !
b0001 %
b0010 "
1&
b0010 #
b00010 $
#826
0&
#831
b0010 !
b0010 %
b0011 "
1&
b0011 #
b00011 $
#836
0&
#841
b0011 !
b0011 %
b0100 "
1&
b0100 #
b00100 $
#846
0&
#851
b0100 !
b0100 %
b0101 "
1&
b0101 #
b00101 $
#856
0&
#861
b0101 !
b0101 %
b0110 "
1&
b0110 #
b00110 $
#866
0&
#871
b0110 !
b0110 %
b0111 "
1&
b0111 #
b00111 $
#876
0&
#881
b0111 !
b0111 %
b1000 "
1&
b1000 #
b01000 $
#886
0&
#891
b1000 !
b1000 %
b0000 "
1&
b1001 #
1'
b01001 $
#896
0&
#901
b0000 !
b0000 %
b0001 "
1&
b0001 #
0'
b00001 $
#906
0&
#911
b0001 !
b0001 %
b0010 "
1&
b0010 #
b00010 $
#916
0&
#921
b0010 !
b0010 %
b0011 "
1&
b0011 #
b00011 $
#926
0&
#931
b0011 !
b0011 %
b0100 "
1&
b0100 #
b00100 $
#936
0&
#941
b0100 !
b0100 %
b0101 "
1&
b0101 #
b00101 $
#946
0&
#951
b0101 !
b0101 %
b0110 "
1&
b0110 #
b00110 $
#956
0&
#961
b0110 !
b0110 %
b0111 "
1&
b0111 #
b00111 $
#966
0&
#971
b0111 !
b0111 %
b1000 "
1&
b1000 #
b01000 $
#976
0&
#981
b1000 !
b1000 %
b0000 "
1&
b1001 #
1'
b01001 $
#986
0&
#991
b0000 !
b0000 %
b0001 "
1&
b0001 #
0'
b00001 $
#996
0&
#1001
b0001 !
b0001 %
b0010 "
1&
b0010 #
b00010 $
#1006
0&
#1011
b0010 !
b0010 %
b0011 "
1&
b0011 #
b00011 $
