test_run_dir/lab6/Exercise3.vcd
$date
2021-04-06T19:45+0000
$end
$version
0.2
$end
$comment

$end
$timescale 1ns  $end
$scope module Exercise3 $end
 $var wire 4 ! next $end
 $var wire 1 " _T $end
 $var wire 1 # _GEN_2 $end
 $var wire 4 $ _next_T_1 $end
 $var wire 1 % done $end
 $var wire 5 & _next_T $end
 $var wire 4 ' _GEN_1 $end
 $var wire 4 ( counter $end
 $var wire 1 ) clock $end
 $var wire 1 * io_reload $end
 $var wire 1 + reset $end
$upscope $end
$enddefinitions $end
$dumpvars
0%
0"
b0000 '
b0000 $
0)
0#
b0000 (
0*
0+
b0000 !
b00000 &
$end
#0
1%
b11111 &
1#
1*
b1111 $
1+
#1
b1001 !
0%
1"
b01001 &
0#
0*
b1001 '
b1001 $
b1010 (
1)
#6
0+
0)
#11
b1000 !
b01000 &
b1000 '
b1000 $
b1001 (
1)
#16
0)
#21
b0111 !
b00111 &
b0111 '
b0111 $
b1000 (
1)
#26
0)
#31
b0110 !
b00110 &
b0110 '
b0110 $
b0111 (
1)
#36
0)
#41
b0101 !
b00101 &
b0101 '
b0101 $
b0110 (
1)
#46
0)
#51
b0100 !
b00100 &
b0100 '
b0100 $
b0101 (
1)
#56
0)
#61
b0011 !
b00011 &
b0011 '
b0011 $
b0100 (
1)
#66
0)
#71
b0010 !
b00010 &
b0010 '
b0010 $
b0011 (
1)
#76
0)
#81
b0001 !
b00001 &
b0001 '
b0001 $
b0010 (
1)
#86
0)
#91
b0000 !
b00000 &
b0000 '
b0000 $
b0001 (
1)
#96
0)
#101
1%
0"
b11111 &
1#
1*
b1111 $
b0000 (
1)
