test_run_dir/lab6/shift_register.vcd
$date
2021-04-07T18:54+0000
$end
$version
0.2
$end
$comment

$end
$timescale 1ns  $end
$scope module shift_register $end
 $var wire 4 ! io_out $end
 $var wire 5 " next_state $end
 $var wire 4 # register_31 $end
 $var wire 4 $ state $end
 $var wire 1 % clock $end
 $var wire 1 & io_in $end
 $var wire 5 ' _next_state_T $end
 $var wire 1 ( reset $end
$upscope $end
$enddefinitions $end
$dumpvars
0%
b0000 $
0&
b00000 "
b0000 !
b00000 '
b0000 #
0(
$end
#0
1(
#1
1%
b00010 "
b00010 '
b0001 $
#6
0%
0(
#11
b0001 !
1%
b00100 "
b0001 #
b00100 '
b0010 $
#16
0%
#21
b0010 !
1%
b01000 "
b0010 #
b01000 '
b0100 $
#26
0%
#31
b0100 !
1%
b10000 "
b0100 #
b10000 '
b1000 $
#36
0%
#41
b1000 !
1%
b00000 "
b1000 #
b00000 '
b0000 $
#46
0%
#51
b0000 !
1%
b0000 #
