test_run_dir/lab6/up_down_counter.vcd
$date
2021-04-07T18:05+0000
$end
$version
0.2
$end
$comment

$end
$timescale 1ns  $end
$scope module up_down_counter $end
 $var wire 4 ! counter_increase $end
 $var wire 4 " counter_buffer_1 $end
 $var wire 4 # io_out $end
 $var wire 4 $ _GEN_2 $end
 $var wire 4 % _counter_buffer_T_2 $end
 $var wire 4 & _counter_buffer_T_5 $end
 $var wire 1 ' io_up_down $end
 $var wire 5 ( _counter_buffer_T_4 $end
 $var wire 4 ) counter_buffer $end
 $var wire 4 * _GEN_1 $end
 $var wire 4 + _GEN_4 $end
 $var wire 5 , _counter_buffer_T_1 $end
 $var wire 1 - clock $end
 $var wire 1 . _counter_buffer_T_3 $end
 $var wire 4 / _GEN_0 $end
 $var wire 1 0 reset $end
 $var wire 1 1 _counter_buffer_T $end
 $var wire 4 2 counter_decrease $end
$upscope $end
$enddefinitions $end
$dumpvars
0-
0'
b0000 /
b0000 )
0.
b0000 !
b00000 ,
b0000 "
00
b0000 #
b0000 2
01
b0000 *
b0000 $
b0000 +
b00000 (
b0000 %
b0000 &
$end
#0
10
b0001 %
1.
b1111 &
b11111 (
b00001 ,
b0001 )
#1
1-
b1001 "
0.
b1001 &
b1010 #
b1010 2
b1010 *
b1001 +
b01001 (
b1001 /
#6
00
0-
b0000 #
b0000 *
1'
b0001 $
b1010 +
b1010 /
#11
b0001 !
1-
b0010 %
b0001 #
b0010 $
b00010 ,
b0010 )
#16
0-
#21
b0010 !
1-
b0011 %
b0010 #
b0011 $
b00011 ,
b0011 )
#26
0-
#31
b0011 !
1-
b0100 %
b0011 #
b0100 $
b00100 ,
b0100 )
#36
0-
#41
b0100 !
1-
b0101 %
b0100 #
b0101 $
b00101 ,
b0101 )
#46
0-
#51
b0101 !
1-
b0110 %
b0101 #
b0110 $
b00110 ,
b0110 )
#56
0-
#61
b0110 !
1-
b0111 %
b0110 #
b0111 $
b00111 ,
b0111 )
#66
0-
#71
b0111 !
1-
b1000 %
b0111 #
b1000 $
b01000 ,
b1000 )
#76
0-
#81
b1000 !
1-
b1001 %
b1000 #
b1001 $
b01001 ,
b1001 )
#86
0-
#91
b1001 !
1-
b1010 %
b1001 #
b1010 $
b01010 ,
b1010 )
#96
0-
#101
b1010 !
1-
b1011 %
11
b1010 #
b0000 $
b01011 ,
b0000 )
#106
0-
#111
b0000 !
1-
b0001 %
01
b0000 #
b0001 $
b00001 ,
b0001 )
#116
0-
#121
b0001 !
1-
b0010 %
b0001 #
b0010 $
b00010 ,
b0010 )
#126
0-
#131
b0010 !
1-
b0011 %
b0010 #
b0011 $
b00011 ,
b0011 )
#136
0-
#141
b0011 !
1-
b0100 %
b0011 #
b0100 $
b00100 ,
b0100 )
#146
0-
#151
b0100 !
1-
b0101 %
b0100 #
b0101 $
b00101 ,
b0101 )
#156
0-
#161
b0101 !
1-
b0110 %
b0101 #
b0110 $
b00110 ,
b0110 )
#166
0-
#171
b0110 !
1-
b0111 %
b0110 #
b0111 $
b00111 ,
b0111 )
#176
0-
#181
b0111 !
1-
b1000 %
b0111 #
b1000 $
b01000 ,
b1000 )
#186
0-
#191
b1000 !
1-
b1001 %
b1000 #
b1001 $
b01001 ,
b1001 )
#196
0-
#201
b1001 !
1-
b1010 %
b1001 #
b1010 $
b01010 ,
b1010 )
#206
0-
#211
b1010 !
1-
b1011 %
11
b1010 #
b0000 $
b01011 ,
b0000 )
#216
0-
#221
b0000 !
1-
b0001 %
01
b0000 #
b0001 $
b00001 ,
b0001 )
#226
0-
#231
b0001 !
1-
b0010 %
b0001 #
b0010 $
b00010 ,
b0010 )
#236
0-
#241
b0010 !
1-
b0011 %
b0010 #
b0011 $
b00011 ,
b0011 )
#246
0-
#251
b0011 !
1-
b0100 %
b0011 #
b0100 $
b00100 ,
b0100 )
#256
0-
#261
b0100 !
1-
b0101 %
b0100 #
b0101 $
b00101 ,
b0101 )
#266
0-
#271
b0101 !
1-
b0110 %
b0101 #
b0110 $
b00110 ,
b0110 )
#276
0-
#281
b0110 !
1-
b0111 %
b0110 #
b0111 $
b00111 ,
b0111 )
#286
0-
#291
b0111 !
1-
b1000 %
b0111 #
b1000 $
b01000 ,
b1000 )
#296
0-
#301
b1000 !
1-
b1001 %
b1000 #
b1001 $
b01001 ,
b1001 )
#306
0-
#311
b1001 !
1-
b1010 %
b1001 #
b1010 $
b01010 ,
b1010 )
#316
0-
#321
b1010 !
1-
b1011 %
11
b1010 #
b0000 $
b01011 ,
b0000 )
#326
0-
#331
b0000 !
1-
b0001 %
01
b0000 #
b0001 $
b00001 ,
b0001 )
#336
0-
#341
b0001 !
1-
b0010 %
b0001 #
b0010 $
b00010 ,
b0010 )
#346
0-
#351
b0010 !
1-
b0011 %
b0010 #
b0011 $
b00011 ,
b0011 )
#356
0-
#361
b0011 !
1-
b0100 %
b0011 #
b0100 $
b00100 ,
b0100 )
#366
0-
#371
b0100 !
1-
b0101 %
b0100 #
b0101 $
b00101 ,
b0101 )
#376
0-
#381
b0101 !
1-
b0110 %
b0101 #
b0110 $
b00110 ,
b0110 )
#386
0-
#391
b0110 !
1-
b0111 %
b0110 #
b0111 $
b00111 ,
b0111 )
#396
0-
#401
b0111 !
1-
b1000 %
b0111 #
b1000 $
b01000 ,
b1000 )
#406
0-
#411
b1000 !
1-
b1001 %
b1000 #
b1001 $
b01001 ,
b1001 )
#416
0-
#421
b1001 !
1-
b1010 %
b1001 #
b1010 $
b01010 ,
b1010 )
#426
0-
#431
b1010 !
1-
b1011 %
11
b1010 #
b0000 $
b01011 ,
b0000 )
#436
0-
#441
b0000 !
1-
b0001 %
01
b0000 #
b0001 $
b00001 ,
b0001 )
#446
0-
#451
b0001 !
1-
b0010 %
b0001 #
b0010 $
b00010 ,
b0010 )
#456
0-
#461
b0010 !
1-
b0011 %
b0010 #
b0011 $
b00011 ,
b0011 )
#466
0-
#471
b0011 !
1-
b0100 %
b0011 #
b0100 $
b00100 ,
b0100 )
#476
0-
#481
b0100 !
1-
b0101 %
b0100 #
b0101 $
b00101 ,
b0101 )
#486
0-
#491
b0101 !
1-
b0110 %
b0101 #
b0110 $
b00110 ,
b0110 )
#496
0-
#501
b0110 !
1-
b0111 %
b0110 #
b0111 $
b00111 ,
b0111 )
#506
0-
#511
b0111 !
1-
b1000 %
b0111 #
b1000 $
b01000 ,
b1000 )
#516
0-
#521
b1000 !
1-
b1001 %
b1000 #
b1001 $
b01001 ,
b1001 )
#526
0-
#531
b1001 !
1-
b1010 %
b1001 #
b1010 $
b01010 ,
b1010 )
#536
0-
#541
b1010 !
1-
b1011 %
11
b1010 #
b0000 $
b01011 ,
b0000 )
#546
0-
#551
b0000 !
1-
b0001 %
01
b0000 #
b0001 $
b00001 ,
b0001 )
#556
0-
#561
b0001 !
1-
b0010 %
b0001 #
b0010 $
b00010 ,
b0010 )
#566
0-
#571
b0010 !
1-
b0011 %
b0010 #
b0011 $
b00011 ,
b0011 )
#576
0-
#581
b0011 !
1-
b0100 %
b0011 #
b0100 $
b00100 ,
b0100 )
#586
0-
#591
b0100 !
1-
b0101 %
b0100 #
b0101 $
b00101 ,
b0101 )
#596
0-
#601
b0101 !
1-
b0110 %
b0101 #
b0110 $
b00110 ,
b0110 )
#606
0-
#611
b0110 !
1-
b0111 %
b0110 #
b0111 $
b00111 ,
b0111 )
#616
0-
#621
b0111 !
1-
b1000 %
b0111 #
b1000 $
b01000 ,
b1000 )
#626
0-
#631
b1000 !
1-
b1001 %
b1000 #
b1001 $
b01001 ,
b1001 )
#636
0-
#641
b1001 !
1-
b1010 %
b1001 #
b1010 $
b01010 ,
b1010 )
#646
0-
#651
b1010 !
1-
b1011 %
11
b1010 #
b0000 $
b01011 ,
b0000 )
#656
0-
#661
b0000 !
1-
b0001 %
01
b0000 #
b0001 $
b00001 ,
b0001 )
#666
0-
#671
b0001 !
1-
b0010 %
b0001 #
b0010 $
b00010 ,
b0010 )
#676
0-
#681
b0010 !
1-
b0011 %
b0010 #
b0011 $
b00011 ,
b0011 )
#686
0-
#691
b0011 !
1-
b0100 %
b0011 #
b0100 $
b00100 ,
b0100 )
#696
0-
#701
b0100 !
1-
b0101 %
b0100 #
b0101 $
b00101 ,
b0101 )
#706
0-
#711
b0101 !
1-
b0110 %
b0101 #
b0110 $
b00110 ,
b0110 )
#716
0-
#721
b0110 !
1-
b0111 %
b0110 #
b0111 $
b00111 ,
b0111 )
#726
0-
#731
b0111 !
1-
b1000 %
b0111 #
b1000 $
b01000 ,
b1000 )
#736
0-
#741
b1000 !
1-
b1001 %
b1000 #
b1001 $
b01001 ,
b1001 )
#746
0-
#751
b1001 !
1-
b1010 %
b1001 #
b1010 $
b01010 ,
b1010 )
#756
0-
#761
b1010 !
1-
b1011 %
11
b1010 #
b0000 $
b01011 ,
b0000 )
#766
0-
#771
b0000 !
1-
b0001 %
01
b0000 #
b0001 $
b00001 ,
b0001 )
#776
0-
#781
b0001 !
1-
b0010 %
b0001 #
b0010 $
b00010 ,
b0010 )
#786
0-
#791
b0010 !
1-
b0011 %
b0010 #
b0011 $
b00011 ,
b0011 )
#796
0-
#801
b0011 !
1-
b0100 %
b0011 #
b0100 $
b00100 ,
b0100 )
#806
0-
#811
b0100 !
1-
b0101 %
b0100 #
b0101 $
b00101 ,
b0101 )
#816
0-
#821
b0101 !
1-
b0110 %
b0101 #
b0110 $
b00110 ,
b0110 )
#826
0-
#831
b0110 !
1-
b0111 %
b0110 #
b0111 $
b00111 ,
b0111 )
#836
0-
#841
b0111 !
1-
b1000 %
b0111 #
b1000 $
b01000 ,
b1000 )
#846
0-
#851
b1000 !
1-
b1001 %
b1000 #
b1001 $
b01001 ,
b1001 )
#856
0-
#861
b1001 !
1-
b1010 %
b1001 #
b1010 $
b01010 ,
b1010 )
#866
0-
#871
b1010 !
1-
b1011 %
11
b1010 #
b0000 $
b01011 ,
b0000 )
#876
0-
#881
b0000 !
1-
b0001 %
01
b0000 #
b0001 $
b00001 ,
b0001 )
#886
0-
#891
b0001 !
1-
b0010 %
b0001 #
b0010 $
b00010 ,
b0010 )
#896
0-
#901
b0010 !
1-
b0011 %
b0010 #
b0011 $
b00011 ,
b0011 )
#906
0-
#911
b0011 !
1-
b0100 %
b0011 #
b0100 $
b00100 ,
b0100 )
#916
0-
#921
b0100 !
1-
b0101 %
b0100 #
b0101 $
b00101 ,
b0101 )
#926
0-
#931
b0101 !
1-
b0110 %
b0101 #
b0110 $
b00110 ,
b0110 )
#936
0-
#941
b0110 !
1-
b0111 %
b0110 #
b0111 $
b00111 ,
b0111 )
#946
0-
#951
b0111 !
1-
b1000 %
b0111 #
b1000 $
b01000 ,
b1000 )
#956
0-
#961
b1000 !
1-
b1001 %
b1000 #
b1001 $
b01001 ,
b1001 )
#966
0-
#971
b1001 !
1-
b1010 %
b1001 #
b1010 $
b01010 ,
b1010 )
#976
0-
#981
b1010 !
1-
b1011 %
11
b1010 #
b0000 $
b01011 ,
b0000 )
#986
0-
#991
b0000 !
1-
b0001 %
01
b0000 #
b0001 $
b00001 ,
b0001 )
#996
0-
#1001
b0001 !
1-
b0010 %
b0001 #
b0010 $
b00010 ,
b0010 )
#1006
0-
b1010 #
b1010 *
0'
b0001 $
b1001 +
b1001 /
#1011
1-
b1000 "
b1000 &
b1001 #
b1001 2
b1001 *
b1000 +
b01000 (
b1000 /
